2 Import and infrastructure
…
In order to generate the explicit links between data levels, we need to import the lowest desired data level into a QFeatures object and aggregate upwards within the QFeatures infrastructure using the aggregateFeatures function. If two SummarizedExperiments are generated separately and then added into the same QFeatures object, there will not automatically be links between them. In this case, if links are required, we can manually add them using the addAssayLink() function.

The best way to get our head around the QFeatures infrastructure is to import our data into a QFeatures object and start exploring.

2.4 Importing sample metadata

Sample metadata is information related to each sample that helps us interpret, organise and analyse our proteomics data. This data is something you must create yourself, related to your experiment. You can use a spreadsheet program such as Excel, or it can be coded in R directly.

Here, we have created a sample metadata file in Excel. This file is called monkeypox_metadata.xlsx. It provides information about each sample, including which group (MPXV, COVID-19, or Control) each run belongs to. We use the read_excel function from the readxl package to import the data into R.

sample_metadata <- read_excel("data/monkeypox_metadata.xlsx")
print(sample_metadata)

# A tibble: 31 × 5
   sample_id                                   runCol  group   sex   age.group
   <chr>                                       <chr>   <chr>   <chr> <chr>    
 1 20220624_Z1_ZW_001_30-0066_Ctr-A1_heat_DIA  Ctr_A1  control m     21-30    
 2 20220624_Z1_ZW_001_30-0066_Ctr-A10_heat_DIA Ctr_A10 control m     31-40    
 3 20220624_Z1_ZW_001_30-0066_Ctr-A11_heat_DIA Ctr_A11 control m     31-40    
 4 20220624_Z1_ZW_001_30-0066_Ctr-A12_heat_DIA Ctr_A12 control m     41-50    
 5 20220624_Z1_ZW_001_30-0066_Ctr-A2_heat_DIA  Ctr_A2  control m     21-30    
 6 20220624_Z1_ZW_001_30-0066_Ctr-A3_heat_DIA  Ctr_A3  control m     21-30    
 7 20220624_Z1_ZW_001_30-0066_Ctr-A4_heat_DIA  Ctr_A4  control m     21-30    
 8 20220624_Z1_ZW_001_30-0066_Ctr-A5_heat_DIA  Ctr_A5  control m     21-30    
 9 20220624_Z1_ZW_001_30-0066_Ctr-A6_heat_DIA  Ctr_A6  control m     21-30    
10 20220624_Z1_ZW_001_30-0066_Ctr-A7_heat_DIA  Ctr_A7  control m     21-30    
# ℹ 21 more rows
…
