7 Biological interpretation
…
Note, we also extract the Master.Protein.Accessions column so we can use this to match to the protein column in our limma results.

Now we can use the left_join function from dplyr to match the protein descriptions to the protein IDs,

M_Desynch_results <- M_Desynch_results %>% left_join(protein_info, by = "protein")

# Verify
M_Desynch_results

# A tibble: 3,825 × 12
   protein  logFC   CI.L  CI.R AveExpr     t  P.Value  adj.P.Val     B direction
   <chr>    <dbl>  <dbl> <dbl>   <dbl> <dbl>    <dbl>      <dbl> <dbl> <chr>    
 1 P31350  -3.05  -3.33  -2.76 -0.576  -24.0 2.24e-10    8.55e-7  14.2 down     
 2 O60732  -2.06  -2.27  -1.84  0.355  -21.3 7.48e-10    1.43e-6  13.2 down     
 3 O43583  -1.35  -1.50  -1.20  0.380  -20.3 1.14e- 9    1.46e-6  12.8 down     
 4 O00622   1.28   1.13   1.43 -0.378   19.2 2.03e- 9    1.94e-6  12.2 up       
 5 O43663   1.07   0.930  1.21  0.155   16.8 7.74e- 9    4.67e-6  11.0 up       
 6 Q96PU5  -1.58  -1.79  -1.37 -0.160  -16.6 9.03e- 9    4.67e-6  10.8 down     
 7 P11802  -1.16  -1.32  -1.01  0.730  -16.5 9.35e- 9    4.67e-6  10.8 down     
 8 P53350   0.906  0.782  1.03  0.0202  16.3 1.04e- 8    4.67e-6  10.7 up       
 9 Q9NQS7   1.10   0.947  1.25 -0.286   16.1 1.13e- 8    4.67e-6  10.6 up       
10 Q14692  -1.61  -1.83  -1.39 -0.295  -16.1 1.22e- 8    4.67e-6  10.5 down     
# ℹ 3,815 more rows
# ℹ 2 more variables: significance <chr>, protein_description <chr>
…
